data,stato,codice_regione,denominazione_regione,lat,long,ricoverati_con_sintomi,terapia_intensiva,totale_ospedalizzati,isolamento_domiciliare,totale_positivi,variazione_totale_positivi,nuovi_positivi,dimessi_guariti,deceduti,casi_da_sospetto_diagnostico,casi_da_screening,totale_casi,tamponi,casi_testati,note,ingressi_terapia_intensiva,note_test,note_casi,totale_positivi_test_molecolare,totale_positivi_test_antigenico_rapido,tamponi_test_molecolare,tamponi_test_antigenico_rapido,codice_nuts_1,codice_nuts_2
2020-02-24T18:00:00,ITA,09,Toscana,43.76923077,11.25588885,0,0,0,0,0,0,0,0,0,,,0,140,,,,,,,,,,,
2020-02-25T18:00:00,ITA,09,Toscana,43.76923077,11.25588885,2,0,2,0,2,2,2,0,0,,,2,296,,,,,,,,,,,
2020-02-26T18:00:00,ITA,09,Toscana,43.76923077,11.25588885,2,0,2,0,2,0,0,0,0,,,2,363,,,,,,,,,,,
2020-02-27T18:00:00,ITA,09,Toscana,43.76923077,11.25588885,2,0,2,0,2,0,0,0,0,,,2,410,,,,,,,,,,,
2020-02-28T18:00:00,ITA,09,Toscana,43.76923077,11.25588885,5,0,5,2,7,5,6,1,0,,,8,437,,,,,,,,,,,
2020-02-29T17:00:00,ITA,09,Toscana,43.76923077,11.25588885,7,0,7,3,10,3,3,1,0,,,11,531,,,,,,,,,,,
2020-03-01T17:00:00,ITA,09,Toscana,43.76923077,11.25588885,7,0,7,5,12,2,2,1,0,,,13,572,,,,,,,,,,,
2020-03-02T18:00:00,ITA,09,Toscana,43.76923077,11.25588885,7,0,7,5,12,0,0,1,0,,,13,613,,,,,,,,,,,
2020-03-03T18:00:00,ITA,09,Toscana,43.76923077,11.25588885,10,0,10,8,18,6,6,1,0,,,19,697,,,,,,,,,,,
2020-03-04T17:00:00,ITA,09,Toscana,43.76923077,11.25588885,15,2,17,20,37,19,19,1,0,,,38,776,,,,,,,,,,,
2020-03-05T17:00:00,ITA,09,Toscana,43.76923077,11.25588885,26,3,29,31,60,23,23,1,0,,,61,776,,,,,,,,,,,
2020-03-06T17:00:00,ITA,09,Toscana,43.76923077,11.25588885,35,5,40,38,78,18,18,1,0,,,79,1097,,,,,,,,,,,
2020-03-07T18:00:00,ITA,09,Toscana,43.76923077,11.25588885,54,7,61,51,112,34,34,1,0,,,113,1331,,,,,,,,,,,
2020-03-08T18:00:00,ITA,09,Toscana,43.76923077,11.25588885,91,7,98,67,165,53,53,1,0,,,166,1618,,,,,,,,,,,
2020-03-09T18:00:00,ITA,09,Toscana,43.76923077,11.25588885,107,9,116,90,206,41,42,1,1,,,208,2018,,,,,,,,,,,
2020-03-10T18:00:00,ITA,09,Toscana,43.76923077,11.25588885,91,40,131,129,260,54,56,3,1,,,264,2573,,,,,,,,,,,
2020-03-11T17:00:00,ITA,09,Toscana,43.76923077,11.25588885,87,54,141,173,314,54,56,5,1,,,320,2804,,,,,,,,,,,
2020-03-12T17:00:00,ITA,09,Toscana,43.76923077,11.25588885,100,59,159,193,352,38,44,7,5,,,364,3165,,,,,,,,,,,
2020-03-13T17:00:00,ITA,09,Toscana,43.76923077,11.25588885,134,77,211,244,455,103,106,10,5,,,470,4049,,,,,,,,,,,
2020-03-14T17:00:00,ITA,09,Toscana,43.76923077,11.25588885,160,87,247,367,614,159,160,10,6,,,630,4595,,,,,,,,,,,
2020-03-15T17:00:00,ITA,09,Toscana,43.76923077,11.25588885,175,107,282,481,763,149,151,10,8,,,781,5132,,,,,,,,,,,
2020-03-16T17:00:00,ITA,09,Toscana,43.76923077,11.25588885,175,107,282,559,841,78,85,11,14,,,866,5910,,,,,,,,,,,
2020-03-17T17:00:00,ITA,09,Toscana,43.76923077,11.25588885,329,143,472,552,1024,183,187,12,17,,,1053,6727,,,,,,,,,,,
2020-03-18T17:00:00,ITA,09,Toscana,43.76923077,11.25588885,427,160,587,704,1291,267,277,17,22,,,1330,7606,,,,,,,,,,,
2020-03-19T17:00:00,ITA,09,Toscana,43.76923077,11.25588885,501,178,679,743,1422,131,152,22,38,,,1482,8873,,,,,,,,,,,
2020-03-20T17:00:00,ITA,09,Toscana,43.76923077,11.25588885,601,189,790,923,1713,291,311,33,47,,,1793,10405,,,,,,,,,,,
2020-03-21T17:00:00,ITA,09,Toscana,43.76923077,11.25588885,664,202,866,1039,1905,192,219,35,72,,,2012,11909,,,,,,,,,,,
2020-03-22T17:00:00,ITA,09,Toscana,43.76923077,11.25588885,706,215,921,1223,2144,239,265,42,91,,,2277,13264,,,,,,,,,,,
2020-03-23T17:00:00,ITA,09,Toscana,43.76923077,11.25588885,838,238,1076,1225,2301,157,184,51,109,,,2461,13851,,,,,,,,,,,
2020-03-24T17:00:00,ITA,09,Toscana,43.76923077,11.25588885,918,244,1162,1357,2519,218,238,51,129,,,2699,15701,,,,,,,,,,,
2020-03-25T17:00:00,ITA,09,Toscana,43.76923077,11.25588885,999,251,1250,1526,2776,257,273,54,142,,,2972,17868,,,,,,,,,,,
2020-03-26T17:00:00,ITA,09,Toscana,43.76923077,11.25588885,1037,259,1296,1677,2973,197,254,95,158,,,3226,20952,,,,,,,,,,,
2020-03-27T17:00:00,ITA,09,Toscana,43.76923077,11.25588885,1053,274,1327,1843,3170,197,224,103,177,,,3450,23746,,,,,,,,,,,
2020-03-28T17:00:00,ITA,09,Toscana,43.76923077,11.25588885,1093,277,1370,2141,3511,341,367,108,198,,,3817,25613,,,,,,,,,,,
2020-03-29T17:00:00,ITA,09,Toscana,43.76923077,11.25588885,1111,275,1386,2400,3786,275,305,121,215,,,4122,27579,,,,,,,,,,,
2020-03-30T17:00:00,ITA,09,Toscana,43.76923077,11.25588885,1116,279,1395,2655,4050,264,290,131,231,,,4412,30099,,,,,,,,,,,
2020-03-31T17:00:00,ITA,09,Toscana,43.76923077,11.25588885,1120,293,1413,2813,4226,176,196,138,244,,,4608,33165,,,,,,,,,,,
2020-04-01T17:00:00,ITA,09,Toscana,43.76923077,11.25588885,1120,297,1417,3015,4432,206,259,182,253,,,4867,36575,,,,,,,,,,,
2020-04-02T17:00:00,ITA,09,Toscana,43.76923077,11.25588885,1135,295,1430,3359,4789,357,406,216,268,,,5273,40724,,,,,,,,,,,
2020-04-03T17:00:00,ITA,09,Toscana,43.76923077,11.25588885,1149,288,1437,3472,4909,120,226,300,290,,,5499,44460,,,,,,,,,,,
2020-04-04T17:00:00,ITA,09,Toscana,43.76923077,11.25588885,1129,286,1415,3639,5054,145,172,310,307,,,5671,47886,,,,,,,,,,,
2020-04-05T17:00:00,ITA,09,Toscana,43.76923077,11.25588885,1111,276,1387,3798,5185,131,176,337,325,,,5847,51006,,,,,,,,,,,
2020-04-06T17:00:00,ITA,09,Toscana,43.76923077,11.25588885,1116,279,1395,3906,5301,116,154,350,350,,,6001,52849,,,,,,,,,,,
2020-04-07T17:00:00,ITA,09,Toscana,43.76923077,11.25588885,1087,263,1350,4077,5427,126,172,377,369,,,6173,56651,,,,,,,,,,,
2020-04-08T17:00:00,ITA,09,Toscana,43.76923077,11.25588885,1066,260,1326,4231,5557,130,206,430,392,,,6379,60985,,,,,,,,,,,
2020-04-09T17:00:00,ITA,09,Toscana,43.76923077,11.25588885,1038,256,1294,4409,5703,146,173,441,408,,,6552,65461,,,,,,,,,,,
2020-04-10T17:00:00,ITA,09,Toscana,43.76923077,11.25588885,1011,256,1267,4555,5822,119,175,451,454,,,6727,72001,,,,,,,,,,,
2020-04-11T17:00:00,ITA,09,Toscana,43.76923077,11.25588885,997,237,1234,4758,5992,170,231,499,467,,,6958,75756,,,,,,,,,,,
2020-04-12T17:00:00,ITA,09,Toscana,43.76923077,11.25588885,983,238,1221,4941,6162,170,277,578,495,,,7235,78640,,,,,,,,,,,
2020-04-13T17:00:00,ITA,09,Toscana,43.76923077,11.25588885,992,225,1217,5040,6257,95,155,615,518,,,7390,80889,,,,,,,,,,,
2020-04-14T17:00:00,ITA,09,Toscana,43.76923077,11.25588885,1002,225,1227,5125,6352,95,137,637,538,,,7527,82269,,,,,,,,,,,
2020-04-15T17:00:00,ITA,09,Toscana,43.76923077,11.25588885,977,216,1193,5224,6417,65,139,693,556,,,7666,86348,,,,,,,,,,,
2020-04-16T17:00:00,ITA,09,Toscana,43.76923077,11.25588885,940,213,1153,5460,6613,196,277,745,585,,,7943,91651,,,,,,,,,,,
2020-04-17T17:00:00,ITA,09,Toscana,43.76923077,11.25588885,898,207,1105,5478,6583,-30,167,925,602,,,8110,96231,,,,,,,,,,,
2020-04-18T17:00:00,ITA,09,Toscana,43.76923077,11.25588885,883,198,1081,5389,6470,-113,127,1149,618,,,8237,99903,,,,,,,,,,,
2020-04-19T17:00:00,ITA,09,Toscana,43.76923077,11.25588885,852,192,1044,5452,6496,26,135,1239,637,,,8372,103975,84620,,,,,,,,,,
2020-04-20T17:00:00,ITA,09,Toscana,43.76923077,11.25588885,850,182,1032,5536,6568,72,135,1272,667,,,8507,105857,85946,,,,,,,,,,
2020-04-21T17:00:00,ITA,09,Toscana,43.76923077,11.25588885,833,171,1004,5618,6622,54,96,1295,686,,,8603,109925,87717,,,,,,,,,,
2020-04-22T17:00:00,ITA,09,Toscana,43.76923077,11.25588885,820,174,994,5173,6167,-455,97,1828,705,,,8700,114100,91747,,,,,,,,,,
2020-04-23T17:00:00,ITA,09,Toscana,43.76923077,11.25588885,791,168,959,5212,6171,4,80,1886,723,,,8780,118177,94426,,,,,,,,,,
2020-04-24T17:00:00,ITA,09,Toscana,43.76923077,11.25588885,738,159,897,5236,6133,-38,97,2002,742,,,8877,121336,96180,,,,,,,,,,
2020-04-25T17:00:00,ITA,09,Toscana,43.76923077,11.25588885,687,166,853,5293,6146,13,138,2109,760,,,9015,125495,98753,,,,,,,,,,
2020-04-26T17:00:00,ITA,09,Toscana,43.76923077,11.25588885,677,158,835,5234,6069,-77,132,2300,778,,,9147,127394,99751,,,,,,,,,,
2020-04-27T17:00:00,ITA,09,Toscana,43.76923077,11.25588885,671,154,825,5158,5983,-86,32,2401,795,,,9179,129048,100869,,,,,,,,,,
2020-04-28T17:00:00,ITA,09,Toscana,43.76923077,11.25588885,619,144,763,5133,5896,-87,52,2524,811,,,9231,133617,103891,,,,,,,,,,
2020-04-29T17:00:00,ITA,09,Toscana,43.76923077,11.25588885,576,139,715,4948,5663,-233,61,2802,827,,,9292,137482,106150,,,,,,,,,,
2020-04-30T17:00:00,ITA,09,Toscana,43.76923077,11.25588885,546,126,672,4912,5584,-79,60,2926,842,,,9352,141849,108596,,,,,,,,,,
2020-05-01T17:00:00,ITA,09,Toscana,43.76923077,11.25588885,520,124,644,4729,5373,-211,93,3218,854,,,9445,146456,111349,,,,,,,,,,
2020-05-02T17:00:00,ITA,09,Toscana,43.76923077,11.25588885,519,118,637,4728,5365,-8,80,3297,863,,,9525,148223,112437,,,,,,,,,,
2020-05-03T17:00:00,ITA,09,Toscana,43.76923077,11.25588885,513,112,625,4703,5328,-37,38,3363,872,,,9563,150914,114354,,,,,,,,,,
2020-05-04T17:00:00,ITA,09,Toscana,43.76923077,11.25588885,512,107,619,4660,5279,-49,38,3441,881,,,9601,152447,115065,,,,,,,,,,
2020-05-05T17:00:00,ITA,09,Toscana,43.76923077,11.25588885,484,111,595,4595,5190,-89,30,3552,889,,,9631,157260,118265,,,,,,,,,,
2020-05-06T17:00:00,ITA,09,Toscana,43.76923077,11.25588885,462,92,554,4534,5088,-102,26,3670,899,,,9657,161553,121066,,,,,,,,,,
2020-05-07T17:00:00,ITA,09,Toscana,43.76923077,11.25588885,437,91,528,4188,4716,-372,26,4052,915,,,9683,166062,124295,,,,,,,,,,
2020-05-08T17:00:00,ITA,09,Toscana,43.76923077,11.25588885,399,84,483,4109,4592,-124,38,4199,930,,,9721,170296,126752,,,,,,,,,,
2020-05-09T17:00:00,ITA,09,Toscana,43.76923077,11.25588885,364,79,443,4005,4448,-144,24,4360,937,,,9745,174596,129382,,,,,,,,,,
2020-05-10T17:00:00,ITA,09,Toscana,43.76923077,11.25588885,350,78,428,3719,4147,-301,29,4685,942,,,9774,178208,131788,,,,,,,,,,
2020-05-11T17:00:00,ITA,09,Toscana,43.76923077,11.25588885,347,77,424,3649,4073,-74,13,4764,950,,,9787,179469,132464,,,,,,,,,,
2020-05-12T17:00:00,ITA,09,Toscana,43.76923077,11.25588885,307,72,379,3462,3841,-232,15,5002,959,,,9802,184851,136285,,,,,,,,,,
2020-05-13T17:00:00,ITA,09,Toscana,43.76923077,11.25588885,284,72,356,3207,3563,-278,27,5302,964,,,9829,189026,138465,,,,,,,,,,
2020-05-14T17:00:00,ITA,09,Toscana,43.76923077,11.25588885,269,68,337,3051,3388,-175,30,5498,973,,,9859,193182,141430,,,,,,,,,,
2020-05-15T17:00:00,ITA,09,Toscana,43.76923077,11.25588885,238,67,305,2863,3168,-220,24,5739,976,,,9883,197365,144237,,,,,,,,,,
2020-05-16T17:00:00,ITA,09,Toscana,43.76923077,11.25588885,234,66,300,2643,2943,-225,30,5991,979,,,9913,200703,145946,,,,,,,,,,
2020-05-17T17:00:00,ITA,09,Toscana,43.76923077,11.25588885,214,67,281,2521,2802,-141,35,6162,984,,,9948,204022,148060,,,,,,,,,,
2020-05-18T17:00:00,ITA,09,Toscana,43.76923077,11.25588885,197,66,263,2310,2573,-229,13,6399,989,,,9961,205201,148580,,,,,,,,,,
2020-05-19T17:00:00,ITA,09,Toscana,43.76923077,11.25588885,190,56,246,2077,2323,-250,7,6653,992,,,9968,209161,151093,,,,,,,,,,
2020-05-20T17:00:00,ITA,09,Toscana,43.76923077,11.25588885,178,45,223,1894,2117,-206,14,6867,998,,,9982,214299,154671,,,,,,,,,,
2020-05-21T17:00:00,ITA,09,Toscana,43.76923077,11.25588885,169,41,210,1667,1877,-240,18,7119,1004,,,10000,218615,157388,,,,,,,,,,
2020-05-22T17:00:00,ITA,09,Toscana,43.76923077,11.25588885,162,42,204,1582,1786,-91,35,7240,1009,,,10035,222505,160266,,,,,,,,,,
2020-05-23T17:00:00,ITA,09,Toscana,43.76923077,11.25588885,157,40,197,1569,1766,-20,12,7270,1011,,,10047,226046,162433,,,,,,,,,,
2020-05-24T17:00:00,ITA,09,Toscana,43.76923077,11.25588885,148,38,186,1514,1700,-66,15,7349,1013,,,10062,229135,164469,,,,,,,,,,
2020-05-25T17:00:00,ITA,09,Toscana,43.76923077,11.25588885,152,37,189,1447,1636,-64,5,7416,1015,,,10067,230273,165114,,,,,,,,,,
2020-05-26T17:00:00,ITA,09,Toscana,43.76923077,11.25588885,145,34,179,1343,1522,-114,3,7527,1021,,,10070,234796,168150,,,,,,,,,,
2020-05-27T17:00:00,ITA,09,Toscana,43.76923077,11.25588885,132,31,163,1297,1460,-62,12,7595,1027,,,10082,238667,170802,,,,,,,,,,
2020-05-28T17:00:00,ITA,09,Toscana,43.76923077,11.25588885,126,27,153,1227,1380,-80,4,7677,1029,,,10086,242687,173406,,,,,,,,,,
2020-05-29T17:00:00,ITA,09,Toscana,43.76923077,11.25588885,111,31,142,1113,1255,-125,2,7802,1031,,,10088,246052,175489,,,,,,,,,,
2020-05-30T17:00:00,ITA,09,Toscana,43.76923077,11.25588885,106,27,133,1033,1166,-89,12,7897,1037,,,10100,249441,177686,,,,,,,,,,
2020-05-31T17:00:00,ITA,09,Toscana,43.76923077,11.25588885,97,28,125,986,1111,-55,4,7952,1041,,,10104,252090,179296,,,,,,,,,,
2020-06-01T17:00:00,ITA,09,Toscana,43.76923077,11.25588885,85,25,110,972,1082,-29,3,7977,1048,,,10107,253845,180233,,,,,,,,,,
2020-06-02T17:00:00,ITA,09,Toscana,43.76923077,11.25588885,85,25,110,901,1011,-71,10,8053,1053,,,10117,257178,182335,,,,,,,,,,
2020-06-03T17:00:00,ITA,09,Toscana,43.76923077,11.25588885,76,25,101,872,973,-38,4,8093,1055,,,10121,259167,183229,,,,,,,,,,
2020-06-04T17:00:00,ITA,09,Toscana,43.76923077,11.25588885,65,24,89,794,883,-90,1,8180,1059,,,10122,262762,186632,,,,,,,,,,
2020-06-05T17:00:00,ITA,09,Toscana,43.76923077,11.25588885,55,23,78,779,857,-26,7,8209,1063,,,10129,266508,188882,,,,,,,,,,
2020-06-06T17:00:00,ITA,09,Toscana,43.76923077,11.25588885,49,22,71,714,785,-72,5,8281,1068,,,10134,269298,190860,,,,,,,,,,
2020-06-07T17:00:00,ITA,09,Toscana,43.76923077,11.25588885,52,20,72,678,750,-35,1,8315,1070,,,10135,272106,192675,,,,,,,,,,
2020-06-08T17:00:00,ITA,09,Toscana,43.76923077,11.25588885,50,20,70,651,721,-29,9,8349,1074,,,10144,273706,193737,,,,,,,,,,
2020-06-09T17:00:00,ITA,09,Toscana,43.76923077,11.25588885,46,17,63,565,628,-93,1,8440,1077,,,10145,277092,195695,,,,,,,,,,
2020-06-10T17:00:00,ITA,09,Toscana,43.76923077,11.25588885,40,15,55,484,539,-89,3,8531,1078,,,10148,280491,198466,,,,,,,,,,
2020-06-11T17:00:00,ITA,09,Toscana,43.76923077,11.25588885,42,15,57,464,521,-18,10,8558,1079,,,10158,283638,200500,,,,,,,,,,
2020-06-12T17:00:00,ITA,09,Toscana,43.76923077,11.25588885,36,14,50,460,510,-11,7,8575,1080,,,10165,286693,202577,,,,,,,,,,
2020-06-13T17:00:00,ITA,09,Toscana,43.76923077,11.25588885,33,16,49,453,502,-8,7,8588,1082,,,10172,289524,204513,,,,,,,,,,
2020-06-14T17:00:00,ITA,09,Toscana,43.76923077,11.25588885,34,16,50,449,499,-3,8,8596,1085,,,10180,292101,206348,,,,,,,,,,
2020-06-15T17:00:00,ITA,09,Toscana,43.76923077,11.25588885,31,16,47,442,489,-10,8,8611,1088,,,10188,293683,207371,,,,,,,,,,
2020-06-16T17:00:00,ITA,09,Toscana,43.76923077,11.25588885,34,14,48,415,463,-26,3,8637,1091,,,10191,296812,209629,,,,,,,,,,
2020-06-17T17:00:00,ITA,09,Toscana,43.76923077,11.25588885,33,14,47,397,444,-19,2,8657,1092,,,10193,300612,212090,,,,,,,,,,
2020-06-18T17:00:00,ITA,09,Toscana,43.76923077,11.25588885,23,13,36,402,438,-6,2,8664,1093,,,10195,303786,213644,,,,,,,,,,
2020-06-19T17:00:00,ITA,09,Toscana,43.76923077,11.25588885,18,12,30,393,423,-15,10,8687,1095,,,10205,306489,214853,,,,,,,,,,
2020-06-20T17:00:00,ITA,09,Toscana,43.76923077,11.25588885,19,12,31,383,414,-9,2,8698,1095,,,10207,309250,215914,,,,,,,,,,
2020-06-21T17:00:00,ITA,09,Toscana,43.76923077,11.25588885,19,9,28,337,365,-49,3,8750,1095,,,10210,311877,217330,,,,,,,,,,
2020-06-22T17:00:00,ITA,09,Toscana,43.76923077,11.25588885,18,9,27,333,360,-5,1,8752,1099,,,10211,313455,218271,,,,,,,,,,
2020-06-23T17:00:00,ITA,09,Toscana,43.76923077,11.25588885,20,6,26,311,337,-23,6,8780,1100,,,10217,316933,219565,,,,,,,,,,
2020-06-24T17:00:00,ITA,09,Toscana,43.76923077,11.25588885,26,5,31,299,330,-7,5,8791,1101,,,10222,320799,221190,,,,,,,,,,
2020-06-25T17:00:00,ITA,09,Toscana,43.76923077,11.25588885,24,6,30,294,324,-6,2,8799,1101,10107,117,10224,323864,222294,,,,,,,,,,
2020-06-26T17:00:00,ITA,09,Toscana,43.76923077,11.25588885,21,6,27,287,314,-10,2,8809,1103,10027,199,10226,326645,223804,,,,,,,,,,
2020-06-27T17:00:00,ITA,09,Toscana,43.76923077,11.25588885,14,6,20,298,318,4,12,8817,1103,10039,199,10238,329865,225524,,,,,,,,,,
2020-06-28T17:00:00,ITA,09,Toscana,43.76923077,11.25588885,16,6,22,301,323,5,5,8817,1103,10044,199,10243,332758,227034,,,,,,,,,,
2020-06-29T17:00:00,ITA,09,Toscana,43.76923077,11.25588885,14,6,20,307,327,4,5,8817,1104,10049,199,10248,334198,228057,,,,,,,,,,
2020-06-30T17:00:00,ITA,09,Toscana,43.76923077,11.25588885,17,6,23,306,329,2,2,8817,1104,10032,218,10250,337110,229809,,,,,,,,,,
2020-07-01T17:00:00,ITA,09,Toscana,43.76923077,11.25588885,13,5,18,305,323,-6,4,8825,1106,10036,218,10254,341165,231407,,,,,,,,,,
2020-07-02T17:00:00,ITA,09,Toscana,43.76923077,11.25588885,11,3,14,310,324,1,4,8825,1109,10040,218,10258,344383,232951,,,,,,,,,,
2020-07-03T17:00:00,ITA,09,Toscana,43.76923077,11.25588885,13,3,16,307,323,-1,9,8832,1112,10049,218,10267,347127,234084,,,,,,,,,,
2020-07-04T17:00:00,ITA,09,Toscana,43.76923077,11.25588885,11,2,13,311,324,1,9,8838,1114,10058,218,10276,349745,235764,,,,,,,,,,
2020-07-05T17:00:00,ITA,09,Toscana,43.76923077,11.25588885,12,2,14,316,330,6,9,8841,1114,10065,220,10285,352549,237344,,,,,,,,,,
2020-07-06T17:00:00,ITA,09,Toscana,43.76923077,11.25588885,12,2,14,318,332,2,2,8841,1114,10067,220,10287,353862,238175,,,,,,,,,,
2020-07-07T17:00:00,ITA,09,Toscana,43.76923077,11.25588885,12,1,13,326,339,7,19,8851,1116,10086,220,10306,356547,239793,,,,,,,,,,
2020-07-08T17:00:00,ITA,09,Toscana,43.76923077,11.25588885,12,2,14,327,341,2,7,8854,1118,10092,221,10313,360262,242041,,,,,,,,,,
2020-07-09T17:00:00,ITA,09,Toscana,43.76923077,11.25588885,11,2,13,324,337,-4,1,8857,1120,10093,221,10314,363333,243990,,,,,,,,,,
2020-07-10T17:00:00,ITA,09,Toscana,43.76923077,11.25588885,9,2,11,319,330,-7,2,8865,1121,10095,221,10316,366018,245794,,,,,,,,,,
2020-07-11T17:00:00,ITA,09,Toscana,43.76923077,11.25588885,7,3,10,320,330,0,5,8869,1122,10100,221,10321,368488,247347,,,,,,,,,,
2020-07-12T17:00:00,ITA,09,Toscana,43.76923077,11.25588885,8,3,11,320,331,1,1,8869,1122,10101,221,10322,371272,249202,,,,,,,,,,
2020-07-13T17:00:00,ITA,09,Toscana,43.76923077,11.25588885,7,3,10,325,335,4,4,8869,1122,10105,221,10326,372853,250093,,,,,,,,,,
2020-07-14T17:00:00,ITA,09,Toscana,43.76923077,11.25588885,8,2,10,301,311,-24,4,8894,1125,10107,223,10330,375745,251778,,,,,,,,,,
2020-07-15T17:00:00,ITA,09,Toscana,43.76923077,11.25588885,9,3,12,301,313,2,8,8898,1127,10114,224,10338,379196,254060,,,,,,,,,,
2020-07-16T17:00:00,ITA,09,Toscana,43.76923077,11.25588885,12,2,14,301,315,2,12,8908,1127,10125,225,10350,382160,255850,,,,,,,,,,
2020-07-17T17:00:00,ITA,09,Toscana,43.76923077,11.25588885,12,1,13,305,318,3,6,8909,1129,10130,226,10356,384826,257616,,,,,,,,,,
2020-07-18T17:00:00,ITA,09,Toscana,43.76923077,11.25588885,12,1,13,301,314,-4,2,8915,1129,10132,226,10358,387885,259442,,,,,,,,,,
2020-07-19T17:00:00,ITA,09,Toscana,43.76923077,11.25588885,12,0,12,313,325,11,16,8920,1129,10147,227,10374,390676,261174,,,,,,,,,,
2020-07-20T17:00:00,ITA,09,Toscana,43.76923077,11.25588885,10,0,10,314,324,-1,1,8921,1130,10148,227,10375,391998,261958,,,,,,,,,,
2020-07-21T17:00:00,ITA,09,Toscana,43.76923077,11.25588885,11,1,12,314,326,2,9,8927,1131,10157,227,10384,395061,263474,,,,,,,,,,
2020-07-22T17:00:00,ITA,09,Toscana,43.76923077,11.25588885,12,1,13,319,332,6,6,8927,1131,10162,228,10390,398693,266008,,,,,,,,,,
2020-07-23T17:00:00,ITA,09,Toscana,43.76923077,11.25588885,14,1,15,313,328,-4,4,8935,1131,10166,228,10394,401479,267719,,,,,,,,,,
2020-07-24T17:00:00,ITA,09,Toscana,43.76923077,11.25588885,14,0,14,321,335,7,11,8939,1131,10176,229,10405,404349,269409,,,,,,,,,,
2020-07-25T17:00:00,ITA,09,Toscana,43.76923077,11.25588885,13,0,13,330,343,8,10,8941,1131,10186,229,10415,407195,271049,,,,,,,,,,
2020-07-26T17:00:00,ITA,09,Toscana,43.76923077,11.25588885,13,0,13,342,355,12,15,8944,1131,10201,229,10430,410136,272875,,,,,,,,,,
2020-07-27T17:00:00,ITA,09,Toscana,43.76923077,11.25588885,13,0,13,350,363,8,8,8944,1131,10207,231,10438,411665,273792,,,,,,,,,,
2020-07-28T17:00:00,ITA,09,Toscana,43.76923077,11.25588885,13,0,13,350,363,0,3,8944,1134,10210,231,10441,414464,275553,,,,,,,,,,
2020-07-29T17:00:00,ITA,09,Toscana,43.76923077,11.25588885,15,0,15,365,380,17,17,8944,1134,10225,233,10458,418307,277889,,,,,,,,,,
2020-07-30T17:00:00,ITA,09,Toscana,43.76923077,11.25588885,17,0,17,372,389,9,11,8946,1134,10236,233,10469,421637,279879,,,,,,,,,,
2020-07-31T17:00:00,ITA,09,Toscana,43.76923077,11.25588885,17,0,17,370,387,-2,14,8962,1134,10250,233,10483,424574,281692,,,,,,,,,,
2020-08-01T17:00:00,ITA,09,Toscana,43.76923077,11.25588885,16,0,16,376,392,5,6,8962,1135,10255,234,10489,427761,283394,,,,,,,,,,
2020-08-02T17:00:00,ITA,09,Toscana,43.76923077,11.25588885,15,0,15,382,397,5,9,8966,1135,10263,235,10498,430576,285083,,,,,,,,,,
2020-08-03T17:00:00,ITA,09,Toscana,43.76923077,11.25588885,16,1,17,381,398,1,10,8974,1136,10270,238,10508,432068,285916,,,,,,,,,,
2020-08-04T17:00:00,ITA,09,Toscana,43.76923077,11.25588885,18,0,18,387,405,7,11,8977,1137,10278,241,10519,434741,287473,,,,,,,,,,
2020-08-05T17:00:00,ITA,09,Toscana,43.76923077,11.25588885,18,0,18,397,415,10,11,8978,1137,10282,248,10530,438634,289710,,,,,,,,,,
2020-08-06T17:00:00,ITA,09,Toscana,43.76923077,11.25588885,20,0,20,405,425,10,17,8985,1137,10287,260,10547,441676,291429,,,,,,,,,,
2020-08-07T17:00:00,ITA,09,Toscana,43.76923077,11.25588885,18,0,18,417,435,10,13,8988,1137,10292,268,10560,444333,292933,,,,,,,,,,
2020-08-08T17:00:00,ITA,09,Toscana,43.76923077,11.25588885,14,1,15,442,457,22,23,8989,1137,10311,272,10583,447250,294690,,,,,,,,,,
2020-08-09T17:00:00,ITA,09,Toscana,43.76923077,11.25588885,14,1,15,495,510,53,61,8997,1137,10370,274,10644,450034,296406,,,,,,,,,,
2020-08-10T17:00:00,ITA,09,Toscana,43.76923077,11.25588885,16,1,17,501,518,8,8,8997,1137,10377,275,10652,451421,297261,,,,,,,,,,
2020-08-11T17:00:00,ITA,09,Toscana,43.76923077,11.25588885,18,1,19,516,535,17,22,9002,1137,10397,277,10674,454393,298892,,,,,,,,,,
2020-08-12T17:00:00,ITA,09,Toscana,43.76923077,11.25588885,15,3,18,545,563,28,33,9007,1137,10402,305,10707,457566,300764,,,,,,,,,,
2020-08-13T17:00:00,ITA,09,Toscana,43.76923077,11.25588885,13,3,16,574,590,27,28,9008,1137,10407,328,10735,460694,302546,,,,,,,,,,
2020-08-14T17:00:00,ITA,09,Toscana,43.76923077,11.25588885,12,3,15,589,604,14,26,9020,1137,10412,349,10761,463708,304412,,,,,,,,,,
2020-08-15T17:00:00,ITA,09,Toscana,43.76923077,11.25588885,9,4,13,620,633,29,38,9028,1138,10419,380,10799,467475,306566,,,,,,,,,,
2020-08-16T17:00:00,ITA,09,Toscana,43.76923077,11.25588885,10,4,14,653,667,34,34,9028,1138,10429,404,10833,469408,307863,,,,,,,,,,
2020-08-17T17:00:00,ITA,09,Toscana,43.76923077,11.25588885,11,4,15,672,687,20,21,9028,1139,10434,420,10854,471051,309024,,,,,,,,,,
2020-08-18T17:00:00,ITA,09,Toscana,43.76923077,11.25588885,16,4,20,698,718,31,31,9028,1139,10449,436,10885,474476,311146,,,,,,,,,,
2020-08-19T17:00:00,ITA,09,Toscana,43.76923077,11.25588885,20,5,25,721,746,28,40,9040,1139,10460,465,10925,479103,314078,,,,,,,,,,
2020-08-20T17:00:00,ITA,09,Toscana,43.76923077,11.25588885,24,5,29,772,801,55,59,9044,1139,10476,508,10984,483726,317235,,,,,,,,,,
2020-08-21T17:00:00,ITA,09,Toscana,43.76923077,11.25588885,28,5,33,845,878,77,79,9046,1139,10501,562,11063,487880,320543,,,,,,,,,,
2020-08-22T17:00:00,ITA,09,Toscana,43.76923077,11.25588885,30,6,36,892,928,50,53,9049,1139,10520,596,11116,492579,323792,,,,,,,,,,
2020-08-23T17:00:00,ITA,09,Toscana,43.76923077,11.25588885,35,7,42,938,980,52,59,9056,1139,10537,638,11175,496708,326623,,,,,,,,,,
2020-08-24T17:00:00,ITA,09,Toscana,43.76923077,11.25588885,39,5,44,971,1015,35,44,9065,1139,10560,659,11219,499767,328743,,,,,,,,,,
2020-08-25T17:00:00,ITA,09,Toscana,43.76923077,11.25588885,41,5,46,993,1039,24,34,9075,1139,10574,679,11253,503641,331202,,,,,,,,,,
2020-08-26T17:00:00,ITA,09,Toscana,43.76923077,11.25588885,43,6,49,1142,1191,152,161,9083,1140,10595,819,11414,509725,335476,,,,,,,,,,
2020-08-27T17:00:00,ITA,09,Toscana,43.76923077,11.25588885,43,5,48,1225,1273,82,99,9100,1140,10608,905,11513,515879,339644,,,,,,,,,,
2020-08-28T17:00:00,ITA,09,Toscana,43.76923077,11.25588885,47,4,51,1298,1349,76,82,9105,1141,10625,970,11595,521946,343913,,,,,,,,,,
2020-08-29T17:00:00,ITA,09,Toscana,43.76923077,11.25588885,44,5,49,1372,1421,72,92,9125,1141,10650,1037,11687,528647,348617,,,,,,,,,,
2020-08-30T17:00:00,ITA,09,Toscana,43.76923077,11.25588885,48,5,53,1450,1503,82,98,9141,1141,10695,1090,11785,535080,353231,,,,,,,,,,
2020-08-31T17:00:00,ITA,09,Toscana,43.76923077,11.25588885,52,8,60,1514,1574,71,73,9143,1141,10715,1143,11858,539518,356542,,,,,,,,,,
2020-09-01T17:00:00,ITA,09,Toscana,43.76923077,11.25588885,53,9,62,1519,1581,7,40,9175,1142,10726,1172,11898,544447,360022,,,,,,,,,,
2020-09-02T17:00:00,ITA,09,Toscana,43.76923077,11.25588885,58,8,66,1570,1636,55,69,9189,1142,10743,1224,11967,552076,365415,,,,,,,,,,
2020-09-03T17:00:00,ITA,09,Toscana,43.76923077,11.25588885,63,7,70,1661,1731,95,113,9206,1143,10771,1309,12080,560036,371628,,,,,,,,,,
2020-09-04T17:00:00,ITA,09,Toscana,43.76923077,11.25588885,67,8,75,1742,1817,86,99,9219,1143,10796,1383,12179,567766,377468,,,,,,,,,,
2020-09-05T17:00:00,ITA,09,Toscana,43.76923077,11.25588885,69,8,77,1812,1889,72,113,9260,1143,10824,1468,12292,576120,383856,,,,,,,,,,
2020-09-06T17:00:00,ITA,09,Toscana,43.76923077,11.25588885,77,8,85,1909,1994,105,122,9277,1143,10869,1545,12414,583923,390411,,,,,,,,,,
2020-09-07T17:00:00,ITA,09,Toscana,43.76923077,11.25588885,77,9,86,1984,2070,76,85,9285,1144,10896,1603,12499,589018,395285,,,,,,,,,,
2020-09-08T17:00:00,ITA,09,Toscana,43.76923077,11.25588885,74,9,83,1996,2079,9,59,9334,1145,10918,1640,12558,594842,399495,,,,,,,,,,
2020-09-09T17:00:00,ITA,09,Toscana,43.76923077,11.25588885,69,11,80,2061,2141,62,88,9358,1147,10939,1707,12646,601979,404903,,,,,,,,,,
2020-09-10T17:00:00,ITA,09,Toscana,43.76923077,11.25588885,74,13,87,2127,2214,73,92,9377,1147,10971,1767,12738,609191,409901,,,,,,,,,,
2020-09-11T17:00:00,ITA,09,Toscana,43.76923077,11.25588885,72,17,89,2223,2312,98,147,9425,1148,11027,1858,12885,616766,414906,,,,,,,,,,
2020-09-12T17:00:00,ITA,09,Toscana,43.76923077,11.25588885,74,18,92,2310,2402,90,138,9473,1148,11095,1928,13023,623464,419422,,,,,,,,,,
2020-09-13T17:00:00,ITA,09,Toscana,43.76923077,11.25588885,80,17,97,2362,2459,57,91,9506,1149,11112,2002,13114,630201,424101,,,,,,,,,,
2020-09-14T17:00:00,ITA,09,Toscana,43.76923077,11.25588885,82,18,100,2400,2500,41,59,9523,1150,11136,2037,13173,633578,426415,,,,,,,,,,
2020-09-15T17:00:00,ITA,09,Toscana,43.76923077,11.25588885,93,17,110,2417,2527,27,41,9536,1151,11151,2063,13214,638071,429310,,,,,,,,,,
2020-09-16T17:00:00,ITA,09,Toscana,43.76923077,11.25588885,88,20,108,2480,2588,61,90,9565,1151,11177,2127,13304,644645,433964,,,,,,,,,,
2020-09-17T17:00:00,ITA,09,Toscana,43.76923077,11.25588885,89,20,109,2541,2650,62,119,9621,1152,11228,2195,13423,652362,439124,,,,,,,,,,
2020-09-18T17:00:00,ITA,09,Toscana,43.76923077,11.25588885,95,21,116,2584,2700,50,99,9670,1152,11271,2251,13522,660245,444645,,,,,,,,,,
2020-09-19T17:00:00,ITA,09,Toscana,43.76923077,11.25588885,88,21,109,2718,2827,127,143,9686,1152,11342,2323,13665,668896,450613,,,,,,,,,,
2020-09-20T17:00:00,ITA,09,Toscana,43.76923077,11.25588885,86,23,109,2847,2956,129,147,9704,1152,11394,2418,13812,676932,455978,,,,,,,,,,
2020-09-21T17:00:00,ITA,09,Toscana,43.76923077,11.25588885,94,23,117,2901,3018,62,84,9726,1152,11423,2473,13896,681070,459147,,,,,,,,,,
2020-09-22T17:00:00,ITA,09,Toscana,43.76923077,11.25588885,98,21,119,2939,3058,40,74,9760,1152,11457,2513,13970,686702,462715,,,,,,,,,,
2020-09-23T17:00:00,ITA,09,Toscana,43.76923077,11.25588885,97,24,121,2933,3054,-4,90,9853,1153,11493,2567,14060,694204,467414,,,,,,,,,,
2020-09-24T17:00:00,ITA,09,Toscana,43.76923077,11.25588885,95,24,119,3037,3156,102,156,9907,1153,11569,2647,14216,701914,472376,,,,,,,,,,
2020-09-25T17:00:00,ITA,09,Toscana,43.76923077,11.25588885,87,24,111,3150,3261,105,139,9938,1156,11622,2733,14355,709159,477064,,,,,,,,,,
2020-09-26T17:00:00,ITA,09,Toscana,43.76923077,11.25588885,84,24,108,3219,3327,66,110,9981,1157,11683,2782,14465,716112,481455,,,,,,,,,,
2020-09-27T17:00:00,ITA,09,Toscana,43.76923077,11.25588885,82,23,105,3302,3407,80,101,10002,1157,11728,2838,14566,723653,486576,,,,,,,,,,
2020-09-28T17:00:00,ITA,09,Toscana,43.76923077,11.25588885,93,22,115,3278,3393,-14,85,10098,1160,11759,2892,14651,728049,489436,,,,,,,,,,
2020-09-29T17:00:00,ITA,09,Toscana,43.76923077,11.25588885,97,20,117,3251,3368,-25,56,10175,1164,11776,2931,14707,732780,492445,,,,,,,,,,
2020-09-30T17:00:00,ITA,09,Toscana,43.76923077,11.25588885,97,22,119,3283,3402,34,120,10261,1164,11834,2993,14827,740483,497351,,,,,,,,,,
2020-10-01T17:00:00,ITA,09,Toscana,43.76923077,11.25588885,106,22,128,3340,3468,66,144,10338,1165,11900,3071,14971,748736,502556,,,,,,,,,,
2020-10-02T17:00:00,ITA,09,Toscana,43.76923077,11.25588885,103,24,127,3504,3631,163,223,10398,1165,11987,3207,15194,757609,508398,,,,,,,,,,
2020-10-03T17:00:00,ITA,09,Toscana,43.76923077,11.25588885,99,24,123,3667,3790,159,197,10435,1166,12084,3307,15391,766448,514176,,,,,,,,,,
2020-10-04T17:00:00,ITA,09,Toscana,43.76923077,11.25588885,99,26,125,3837,3962,172,188,10451,1166,12196,3383,15579,774753,519910,,,,,,,,,,
2020-10-05T17:00:00,ITA,09,Toscana,43.76923077,11.25588885,112,32,144,3921,4065,103,185,10531,1168,12297,3467,15764,780067,523569,,,,,,,,,,
2020-10-06T17:00:00,ITA,09,Toscana,43.76923077,11.25588885,117,28,145,4054,4199,134,209,10606,1168,12422,3551,15973,787032,528501,,,,,,,,,,
2020-10-07T17:00:00,ITA,09,Toscana,43.76923077,11.25588885,123,28,151,4279,4430,231,300,10673,1170,12593,3680,16273,797046,535058,,,,,,,,,,
2020-10-08T17:00:00,ITA,09,Toscana,43.76923077,11.25588885,132,27,159,4590,4749,319,339,10693,1170,12785,3827,16612,806096,541159,,,,,,,,,,
2020-10-09T17:00:00,ITA,09,Toscana,43.76923077,11.25588885,140,30,170,4951,5121,372,483,10801,1173,13074,4021,17095,816877,548458,,,,,,,,,,
2020-10-10T17:00:00,ITA,09,Toscana,43.76923077,11.25588885,160,30,190,5450,5640,519,548,10830,1173,13504,4139,17643,828114,556336,,,,,,,,,,
2020-10-11T17:00:00,ITA,09,Toscana,43.76923077,11.25588885,186,31,217,5925,6142,502,517,10844,1174,13854,4306,18160,839508,564468,,,,,,,,,,
2020-10-12T17:00:00,ITA,09,Toscana,43.76923077,11.25588885,205,40,245,6259,6504,362,466,10942,1180,14189,4437,18626,848466,570706,,,,,,,,,,
2020-10-13T17:00:00,ITA,09,Toscana,43.76923077,11.25588885,218,44,262,6655,6917,413,480,11008,1181,14546,4560,19106,856638,576101,,,,,,,,,,
2020-10-14T17:00:00,ITA,09,Toscana,43.76923077,11.25588885,229,46,275,7152,7427,510,575,11071,1183,14954,4727,19681,867671,583506,,,,,,,,,,
2020-10-15T17:00:00,ITA,09,Toscana,43.76923077,11.25588885,276,46,322,7584,7906,479,581,11171,1185,15463,4799,20262,878817,591385,,,,,,,,,,
2020-10-16T17:00:00,ITA,09,Toscana,43.76923077,11.25588885,308,51,359,8156,8515,609,755,11315,1187,16194,4823,21017,890317,598910,,,,,,,,,,
2020-10-17T17:00:00,ITA,09,Toscana,43.76923077,11.25588885,344,50,394,8853,9247,732,879,11460,1189,17020,4876,21896,903865,608130,,,,,,,,,,
2020-10-18T17:00:00,ITA,09,Toscana,43.76923077,11.25588885,385,55,440,9546,9986,739,906,11622,1194,17869,4933,22802,917245,617111,,,,,,,,,,
2020-10-19T17:00:00,ITA,09,Toscana,43.76923077,11.25588885,449,62,511,10340,10851,865,986,11731,1206,18734,5054,23788,927802,624289,,,,,,,,,,
2020-10-20T17:00:00,ITA,09,Toscana,43.76923077,11.25588885,475,72,547,10999,11546,695,812,11846,1208,19332,5268,24600,939153,631648,,,,,,,,,,
2020-10-21T17:00:00,ITA,09,Toscana,43.76923077,11.25588885,503,76,579,11660,12239,693,866,12006,1221,20011,5455,25466,950782,639007,,,,,,,,,,
2020-10-22T17:00:00,ITA,09,Toscana,43.76923077,11.25588885,524,82,606,12655,13261,1022,1145,12121,1229,20938,5673,26611,962277,646277,Sono stati effettuati 758 tamponi antigenici rapidi in aggiunta ai test in PCR comunicati,,,,,,,,,
2020-10-23T17:00:00,ITA,09,Toscana,43.76923077,11.25588885,574,82,656,13718,14374,1113,1290,12290,1237,21997,5904,27901,973655,653719,Sono stati effettuati 1726 tamponi antigenici rapidi di cui 978 odierni,,,,,,,,,
2020-10-24T17:00:00,ITA,09,Toscana,43.76923077,11.25588885,640,87,727,14961,15688,1314,1526,12491,1248,23194,6233,29427,987024,662605,,,,,,,,,,
2020-10-25T17:00:00,ITA,09,Toscana,43.76923077,11.25588885,714,111,825,16495,17320,1632,1863,12708,1262,24763,6527,31290,1000835,671386,,,,,,,,,,
2020-10-26T17:00:00,ITA,09,Toscana,43.76923077,11.25588885,779,110,889,18487,19376,2056,2171,12810,1275,26539,6922,33461,1013957,680058,effettuati 5735 tamponi rapidi antigenici di cui 1596 odierni,,,,,,,,,
2020-10-27T17:00:00,ITA,09,Toscana,43.76923077,11.25588885,804,119,923,20117,21040,1664,1823,12954,1290,28054,7230,35284,1027459,688497,effettuati 7134 tamponi rapidi antigenici di cui 1399 odierni,,,,,,,,,
2020-10-28T17:00:00,ITA,09,Toscana,43.76923077,11.25588885,857,130,987,21373,22360,1320,1708,13335,1297,29543,7449,36992,1041270,696653,,,,,,,,,,
2020-10-29T17:00:00,ITA,09,Toscana,43.76923077,11.25588885,956,137,1093,22877,23970,1610,1966,13678,1310,31190,7768,38958,1056864,706557,,,,,,,,,,
2020-10-30T17:00:00,ITA,09,Toscana,43.76923077,11.25588885,1007,153,1160,25260,26420,2450,2765,13983,1320,33468,8255,41723,1074698,717521,effettuati 12488 tamponi rapidi antigenici di cui 1262 odierni,,,,,,,,,
2020-10-31T17:00:00,ITA,09,Toscana,43.76923077,11.25588885,1046,163,1209,26635,27844,1424,2540,15074,1345,35553,8710,44263,1090874,727110,,,,,,,,,,
2020-11-01T17:00:00,ITA,09,Toscana,43.76923077,11.25588885,1106,173,1279,28695,29974,2130,2379,15305,1363,37515,9127,46642,1106715,736419,,,,,,,,,,
2020-11-02T17:00:00,ITA,09,Toscana,43.76923077,11.25588885,1217,182,1399,30336,31735,1761,2009,15529,1387,39186,9465,48651,1118732,743951,effettuati 15426 tamponi rapidi antigenici di cui 562 odierni,,,,,,,,,
2020-11-03T17:00:00,ITA,09,Toscana,43.76923077,11.25588885,1261,190,1451,32466,33917,2182,2336,15667,1403,41133,9854,50987,1133147,753032,effettuati 15775 tamponi rapidi antigenici di cui 349 odierni,,,,,,,,,
2020-11-04T17:00:00,ITA,09,Toscana,43.76923077,11.25588885,1319,197,1516,33948,35464,1547,1828,15890,1445,42559,10256,52815,1148233,760985,effettuati 16650 tamponi rapidi antigenici di cui 875 odierni,,,,,,,,,
2020-11-05T17:00:00,ITA,09,Toscana,43.76923077,11.25588885,1387,202,1589,35893,37482,2018,2273,16136,1470,44373,10715,55088,1164607,771596,"effettuati 17941 tamponi rapidi antigenici di cui 1291 odierni. la Regione Toscana comunica che il numero dei decessi a ieri era 1445, e non 1461.",,,,,,,,,
2020-11-06T17:00:00,ITA,09,Toscana,43.76923077,11.25588885,1303,209,1512,37928,39440,1958,2592,16738,1502,46541,11139,57680,1180350,780994,effettuati 19323 tamponi rapidi antigenici di cui 1382 odierni,,,,,,,,,
2020-11-07T17:00:00,ITA,09,Toscana,43.76923077,11.25588885,1368,214,1582,40001,41583,2143,2787,17352,1532,48875,11592,60467,1198493,791081,,,,,,,,,,
2020-11-08T17:00:00,ITA,09,Toscana,43.76923077,11.25588885,1474,226,1700,41747,43447,1864,2479,17938,1561,50905,12041,62946,1214035,799345,,,,,,,,,,
2020-11-09T17:00:00,ITA,09,Toscana,43.76923077,11.25588885,1542,234,1776,42704,44480,1033,2244,19116,1594,52685,12505,65190,1227725,806480,effettuati  26463 tamponi rapidi antigenici di cui 1269 odierni,,,,,,,,,
2020-11-10T17:00:00,ITA,09,Toscana,43.76923077,11.25588885,1582,242,1824,44490,46314,1834,2223,19451,1648,54431,12982,67413,1241973,813816,effettuati  33301 tamponi rapidi antigenici di cui 1593 odierni,,,,,,,,,
2020-11-11T17:00:00,ITA,09,Toscana,43.76923077,11.25588885,1628,246,1874,46026,47900,1586,2507,20319,1701,56467,13453,69920,1259794,822966,effettuati  34960 tamponi rapidi antigenici di cui 1659 odierni,,,,,,,,,
2020-11-12T17:00:00,ITA,09,Toscana,43.76923077,11.25588885,1653,256,1909,47007,48916,1016,1932,21198,1738,58012,13840,71852,1275580,830926,effettuati  37745 tamponi rapidi antigenici di cui 2785 odierni,,,,,,,,,
2020-11-13T17:00:00,ITA,09,Toscana,43.76923077,11.25588885,1656,265,1921,48208,50129,1213,2478,22408,1793,59899,14431,74330,1294003,839613,effettuati  40063 tamponi rapidi antigenici di cui 2318 odierni,,,,,,,,,
2020-11-14T17:00:00,ITA,09,Toscana,43.76923077,11.25588885,1679,266,1945,49116,51061,932,2420,23854,1835,61678,15072,76750,1313187,848164,,,,,,,,,,
2020-11-15T17:00:00,ITA,09,Toscana,43.76923077,11.25588885,1734,274,2008,50300,52308,1247,2653,25216,1879,63548,15855,79403,1331924,856660,,,,,,,,,,
2020-11-16T17:00:00,ITA,09,Toscana,43.76923077,11.25588885,1777,284,2061,51790,53851,1543,2433,26070,1915,65242,16594,81836,1347451,863173,effettuati  45427 tamponi rapidi antigenici di cui 864 odierni,,,,,,,,,
2020-11-17T17:00:00,ITA,09,Toscana,43.76923077,11.25588885,1792,277,2069,52083,54152,301,2361,28078,1967,66908,17289,84197,1363146,870134,effettuati  48180 tamponi rapidi antigenici di cui 2753 odierni,,,,,,,,,
2020-11-18T17:00:00,ITA,09,Toscana,43.76923077,11.25588885,1805,282,2087,52023,54110,-42,2508,30573,2022,68667,18038,86705,1385511,880609,effettuati  50901 tamponi rapidi antigenici di cui 2721 odierni,,,,,,,,,
2020-11-19T17:00:00,ITA,09,Toscana,43.76923077,11.25588885,1814,287,2101,52023,54124,14,1972,32480,2073,69971,18706,88677,1403341,888853,effettuati  54517 tamponi rapidi antigenici di cui 3616 odierni,,,,,,,,,
2020-11-20T17:00:00,ITA,09,Toscana,43.76923077,11.25588885,1792,295,2087,51782,53869,-255,2207,34894,2121,71442,19442,90884,1421783,897193,effettuati  58204 tamponi rapidi antigenici di cui 3687 odierni,,,,,,,,,
2020-11-21T17:00:00,ITA,09,Toscana,43.76923077,11.25588885,1798,296,2094,51046,53140,-729,1892,37471,2165,72642,20134,92776,1440310,904959,,,,,,,,,,
2020-11-22T17:00:00,ITA,09,Toscana,43.76923077,11.25588885,1785,298,2083,50641,52724,-416,1929,39765,2216,73871,20834,94705,1457791,912549,,,,,,,,,,
2020-11-23T17:00:00,ITA,09,Toscana,43.76923077,11.25588885,1832,296,2128,50291,52419,-305,1323,41345,2264,74667,21361,96028,1468342,917080,effettuati  66132 tamponi rapidi antigenici di cui 1182 odierni,,,,,,,,,
2020-11-24T17:00:00,ITA,09,Toscana,43.76923077,11.25588885,1771,296,2067,48639,50706,-1713,962,43973,2311,75233,21757,96990,1480155,922166,effettuati  69377 tamponi rapidi antigenici di cui 3245 odierni,,,,,,,,,
2020-11-25T17:00:00,ITA,09,Toscana,43.76923077,11.25588885,1754,286,2040,47240,49280,-1426,986,46318,2378,75858,22118,97976,1494998,928848,effettuati  72404 tamponi rapidi antigenici di cui 3027 odierni,,,,,,,,,
2020-11-26T17:00:00,ITA,09,Toscana,43.76923077,11.25588885,1712,281,1993,46142,48135,-1145,1351,48742,2450,76637,22690,99327,1511997,935992,effettuati  75027 tamponi rapidi antigenici di cui 2623 odierni,,,,,,,,,
2020-11-27T17:00:00,ITA,09,Toscana,43.76923077,11.25588885,1647,278,1925,44606,46531,-1604,1117,51397,2516,77248,23196,100444,1527078,942239,effettuati  78290 tamponi rapidi antigenici di cui 3263 odierni,,,,,,,,,
2020-11-28T17:00:00,ITA,09,Toscana,43.76923077,11.25588885,1593,279,1872,43200,45072,-1459,1196,54005,2563,77917,23723,101640,1543449,948551,,,,,,,,,,
2020-11-29T17:00:00,ITA,09,Toscana,43.76923077,11.25588885,1590,278,1868,41676,43544,-1528,908,56403,2601,78463,24085,102548,1557825,954647,,,,,,,,,,
2020-11-30T17:00:00,ITA,09,Toscana,43.76923077,11.25588885,1584,278,1862,40164,42026,-1518,893,58774,2641,78969,24472,103441,1568208,958389,effettuati  84798 tamponi rapidi antigenici di cui 1027 odierni,,,,,,,,,
2020-12-01T17:00:00,ITA,09,Toscana,43.76923077,11.25588885,1563,267,1830,38371,40201,-1825,658,61225,2673,79367,24732,104099,1578009,961774,effettuati  88185 tamponi rapidi antigenici di cui 3387 odierni,,,,,,,,,
2020-12-02T17:00:00,ITA,09,Toscana,43.76923077,11.25588885,1514,271,1785,35740,37525,-2676,776,64632,2718,79788,25087,104875,1591558,966235,effettuati  92096 tamponi rapidi antigenici di cui 3911 odierni,,,,,,,,,
2020-12-03T17:00:00,ITA,09,Toscana,43.76923077,11.25588885,1467,272,1739,33691,35430,-2095,929,67618,2756,0,0,105804,1606027,971080,,18,,,,,,,,
2020-12-04T17:00:00,ITA,09,Toscana,43.76923077,11.25588885,1418,263,1681,31598,33279,-2151,1071,70798,2798,,,106875,1620101,975232,,16,"Positivi diagnosticati solo con test antigenico rapido: in questo momento non è procedura adottatata da Regione Toscana, pertanto il valore è pari a zero.",,,,,,,
2020-12-05T17:00:00,ITA,09,Toscana,43.76923077,11.25588885,1373,261,1634,28910,30544,-2735,769,74261,2839,,,107644,1633330,979295,,13,"Positivi diagnosticati solo con test antigenico rapido: in questo momento non è procedura adottatata da Regione Toscana, pertanto il valore è pari a zero.",,,,,,,
2020-12-06T17:00:00,ITA,09,Toscana,43.76923077,11.25588885,1360,252,1612,27587,29199,-1345,753,76331,2867,,,108397,1645472,983103,,9,"Positivi diagnosticati solo con test antigenico rapido: in questo momento non è procedura adottatata da Regione Toscana, pertanto il valore è pari a zero.",,,,,,,
2020-12-07T17:00:00,ITA,09,Toscana,43.76923077,11.25588885,1365,253,1618,26466,28084,-1115,593,78008,2898,,,108990,1653284,985288,,9,"Positivi diagnosticati solo con test antigenico rapido: in questo momento non è procedura adottatata da Regione Toscana, pertanto il valore è pari a zero.",,,,,,,
2020-12-08T17:00:00,ITA,09,Toscana,43.76923077,11.25588885,1335,253,1588,24436,26024,-2060,428,80461,2933,,,109418,1661394,988018,,13,"Positivi diagnosticati solo con test antigenico rapido: in questo momento non è procedura adottatata da Regione Toscana, pertanto il valore è pari a zero",,,,,,,
2020-12-09T17:00:00,ITA,09,Toscana,43.76923077,11.25588885,1347,253,1600,23005,24605,-1419,505,82361,2957,,,109923,1671272,990816,,12,"Positivi diagnosticati solo con test antigenico rapido: in questo momento non è procedura adottatata da Regione Toscana, pertanto il valore è pari a zero",,,,,,,
2020-12-10T17:00:00,ITA,09,Toscana,43.76923077,11.25588885,1323,247,1570,20762,22332,-2273,517,85076,3032,,,110440,1680849,993998,,11,"Positivi diagnosticati solo con test antigenico rapido: in questo momento non è procedura adottatata da Regione Toscana, pertanto il valore è pari a zero",,,,,,,
2020-12-11T17:00:00,ITA,09,Toscana,43.76923077,11.25588885,1268,241,1509,19315,20824,-1508,657,87191,3082,,,111097,1693046,997485,,13,"Positivi diagnosticati solo con test antigenico rapido: in questo momento non è procedura adottatata da Regione Toscana, pertanto il valore è pari a zero",,,,,,,
2020-12-12T17:00:00,ITA,09,Toscana,43.76923077,11.25588885,1221,228,1449,17643,19092,-1732,574,89462,3117,,,111671,1705743,1001493,,11,"Positivi diagnosticati solo con test antigenico rapido: in questo momento non è procedura adottatata da Regione Toscana, pertanto il valore è pari a zero",,,,,,,
2020-12-13T17:00:00,ITA,09,Toscana,43.76923077,11.25588885,1180,219,1399,16715,18114,-978,673,91079,3151,,,112344,1718159,1005743,,10,"Positivi diagnosticati solo con test antigenico rapido: in questo momento non è procedura adottatata da Regione Toscana, pertanto il valore è pari a zero",,,,,,,
2020-12-14T17:00:00,ITA,09,Toscana,43.76923077,11.25588885,1193,210,1403,16076,17479,-635,445,92117,3193,,,112789,1725291,1008357,,4,"Positivi diagnosticati solo con test antigenico rapido: in questo momento non è procedura adottatata da Regione Toscana, pertanto il valore è pari a zero",,,,,,,
2020-12-15T17:00:00,ITA,09,Toscana,43.76923077,11.25588885,1156,214,1370,14894,16264,-1215,332,93619,3238,,,113121,1733863,1011122,,15,"Positivi diagnosticati solo con test antigenico rapido: in questo momento non è procedura adottatata da Regione Toscana, pertanto il valore è pari a zero",,,,,,,
2020-12-16T17:00:00,ITA,09,Toscana,43.76923077,11.25588885,1101,202,1303,13732,15035,-1229,489,95290,3285,,,113610,1746053,1014930,,12,"Positivi diagnosticati solo con test antigenico rapido: in questo momento non è procedura adottatata da Regione Toscana, pertanto il valore è pari a zero",,,,,,,
2020-12-17T17:00:00,ITA,09,Toscana,43.76923077,11.25588885,1062,199,1261,12999,14260,-775,636,96638,3348,,,114246,1757598,1019118,,16,"Positivi diagnosticati solo con test antigenico rapido: in questo momento non è procedura adottatata da Regione Toscana, pertanto il valore è pari a zero",,,,,,,
2020-12-18T17:00:00,ITA,09,Toscana,43.76923077,11.25588885,1009,191,1200,12319,13519,-741,514,97851,3390,,,114760,1768982,1022788,,9,"Positivi diagnosticati solo con test antigenico rapido: in questo momento non è procedura adottatata da Regione Toscana, pertanto il valore è pari a zero",,,,,,,
2020-12-19T17:00:00,ITA,09,Toscana,43.76923077,11.25588885,998,189,1187,11839,13026,-493,540,98859,3415,,,115300,1780010,1026764,,11,"Positivi diagnosticati solo con test antigenico rapido: in questo momento non è procedura adottatata da Regione Toscana, pertanto il valore è pari a zero",,,,,,,
2020-12-20T17:00:00,ITA,09,Toscana,43.76923077,11.25588885,963,187,1150,11656,12806,-220,483,99538,3439,,,115783,1790932,1030699,,6,"Positivi diagnosticati solo con test antigenico rapido: in questo momento non è procedura adottatata da Regione Toscana, pertanto il valore è pari a zero",,,,,,,
2020-12-21T17:00:00,ITA,09,Toscana,43.76923077,11.25588885,965,185,1150,11246,12396,-410,452,100366,3473,,,116235,1797570,1032849,,8,"Positivi diagnosticati solo con test antigenico rapido: in questo momento non è procedura adottatata da Regione Toscana, pertanto il valore è pari a zero",,,,,,,
2020-12-22T17:00:00,ITA,09,Toscana,43.76923077,11.25588885,941,175,1116,10721,11837,-559,309,101212,3495,,,116544,1806133,1035769,,3,"Positivi diagnosticati solo con test antigenico rapido: in questo momento non è procedura adottatata da Regione Toscana, pertanto il valore è pari a zero",,,,,,,
2020-12-23T17:00:00,ITA,09,Toscana,43.76923077,11.25588885,903,166,1069,10288,11357,-480,435,102105,3517,,,116979,1818397,1039802,,7,"Positivi diagnosticati solo con test antigenico rapido: in questo momento non è procedura adottatata da Regione Toscana, pertanto il valore è pari a zero",,,,,,,
2020-12-24T17:00:00,ITA,09,Toscana,43.76923077,11.25588885,888,161,1049,9920,10969,-388,563,103021,3552,,,117542,1830077,1043441,,4,"Positivi diagnosticati solo con test antigenico rapido: in questo momento non è procedura adottatata da Regione Toscana, pertanto il valore è pari a zero",,,,,,,
2020-12-25T17:00:00,ITA,09,Toscana,43.76923077,11.25588885,843,166,1009,10260,11269,300,613,103328,3558,,,118155,1841106,1047247,,11,"Positivi diagnosticati solo con test antigenico rapido: in questo momento non è procedura adottatata da Regione Toscana, pertanto il valore è pari a zero",,,,,,,
2020-12-26T17:00:00,ITA,09,Toscana,43.76923077,11.25588885,825,166,991,9887,10878,-391,402,104099,3580,,,118557,1846026,1049142,,10,"Positivi diagnosticati solo con test antigenico rapido: in questo momento non è procedura adottatata da Regione Toscana, pertanto il valore è pari a zero",,,,,,,
2020-12-27T17:00:00,ITA,09,Toscana,43.76923077,11.25588885,847,165,1012,9788,10800,-78,227,104396,3588,,,118784,1849528,1050691,,4,"Positivi diagnosticati solo con test antigenico rapido: in questo momento non è procedura adottatata da Regione Toscana, pertanto il valore è pari a zero",,,,,,,
2020-12-28T17:00:00,ITA,09,Toscana,43.76923077,11.25588885,890,164,1054,9230,10284,-516,181,105064,3617,,,118965,1853202,1052016,,5,"Positivi diagnosticati solo con test antigenico rapido: in questo momento non è procedura adottatata da Regione Toscana, pertanto il valore è pari a zero",,,,,,,
2020-12-29T17:00:00,ITA,09,Toscana,43.76923077,11.25588885,879,157,1036,8979,10015,-269,271,105589,3632,,,119236,1861004,1054622,,6,"Positivi diagnosticati solo con test antigenico rapido: in questo momento non è procedura adottatata da Regione Toscana, pertanto il valore è pari a zero",,,,,,,
2020-12-30T17:00:00,ITA,09,Toscana,43.76923077,11.25588885,869,160,1029,8708,9737,-278,460,106304,3655,,,119696,1872240,1057968,,10,"Positivi diagnosticati solo con test antigenico rapido: in questo momento non è procedura adottatata da Regione Toscana, pertanto il valore è pari a zero",,,,,,,
2020-12-31T17:00:00,ITA,09,Toscana,43.76923077,11.25588885,838,150,988,8690,9678,-59,632,106977,3673,,,120328,1883593,1061504,,3,"Positivi diagnosticati solo con test antigenico rapido: in questo momento non è procedura adottatata da Regione Toscana, pertanto il valore è pari a zero",,,,,,,
2021-01-01T17:00:00,ITA,09,Toscana,43.76923077,11.25588885,810,143,953,8883,9836,158,589,107381,3700,,,120917,1893356,1064848,,5,"Positivi diagnosticati solo con test antigenico rapido: in questo momento non è procedura adottatata da Regione Toscana, pertanto il valore è pari a zero",,,,,,,
2021-01-02T17:00:00,ITA,09,Toscana,43.76923077,11.25588885,825,139,964,9057,10021,185,498,107674,3720,,,121415,1898439,1066811,,6,"Positivi diagnosticati solo con test antigenico rapido: in questo momento non è procedura adottatata da Regione Toscana, pertanto il valore è pari a zero",,,,,,,
2021-01-03T17:00:00,ITA,09,Toscana,43.76923077,11.25588885,834,147,981,8967,9948,-73,355,108092,3730,,,121770,1904826,1069499,,11,"Positivi diagnosticati solo con test antigenico rapido: in questo momento non è procedura adottatata da Regione Toscana, pertanto il valore è pari a zero",,,,,,,
2021-01-04T17:00:00,ITA,09,Toscana,43.76923077,11.25588885,877,141,1018,8961,9979,31,313,108360,3744,,,122083,1910036,1071154,,8,"Positivi diagnosticati solo con test antigenico rapido: in questo momento non è procedura adottatata da Regione Toscana, pertanto il valore è pari a zero",,,,,,,
2021-01-05T17:00:00,ITA,09,Toscana,43.76923077,11.25588885,860,139,999,8638,9637,-342,337,109021,3762,,,122420,1917959,1073738,,8,"Positivi diagnosticati solo con test antigenico rapido: in questo momento non è procedura adottatata da Regione Toscana, pertanto il valore è pari a zero",,,,,,,
2021-01-06T17:00:00,ITA,09,Toscana,43.76923077,11.25588885,815,146,961,8488,9449,-188,411,109593,3789,,,122831,1929121,1077856,,12,"Positivi diagnosticati solo con test antigenico rapido: in questo momento non è procedura adottatata da Regione Toscana, pertanto il valore è pari a zero",,,,,,,
2021-01-07T17:00:00,ITA,09,Toscana,43.76923077,11.25588885,827,146,973,8527,9500,51,667,110191,3807,,,123498,1937498,1080858,,8,"Positivi diagnosticati solo con test antigenico rapido: in questo momento non è procedura adottatata da Regione Toscana, pertanto il valore è pari a zero",,,,,,,
2021-01-08T17:00:00,ITA,09,Toscana,43.76923077,11.25588885,807,139,946,8289,9235,-265,452,110885,3830,,,123950,1945061,1083608,,4,"Positivi diagnosticati solo con test antigenico rapido: in questo momento non è procedura adottatata da Regione Toscana, pertanto il valore è pari a zero",,,,,,,
2021-01-09T17:00:00,ITA,09,Toscana,43.76923077,11.25588885,792,139,931,8174,9105,-130,529,111534,3840,,,124479,1956024,1087156,,6,"Positivi diagnosticati solo con test antigenico rapido: in questo momento non è procedura adottatata da Regione Toscana, pertanto il valore è pari a zero",,,,,,,
2021-01-10T17:00:00,ITA,09,Toscana,43.76923077,11.25588885,769,140,909,8192,9101,-4,472,111995,3855,,,124951,1965493,1091275,,12,"Positivi diagnosticati solo con test antigenico rapido: in questo momento non è procedura adottatata da Regione Toscana, pertanto il valore è pari a zero",,,,,,,
2021-01-11T17:00:00,ITA,09,Toscana,43.76923077,11.25588885,789,144,933,8087,9020,-81,379,112426,3884,,,125330,1971143,1093335,,10,"Positivi diagnosticati solo con test antigenico rapido: in questo momento non è procedura adottatata da Regione Toscana, pertanto il valore è pari a zero",,,,,,,
2021-01-12T17:00:00,ITA,09,Toscana,43.76923077,11.25588885,773,137,910,7813,8723,-297,303,113005,3905,,,125633,1978712,1095969,,4,"Positivi diagnosticati solo con test antigenico rapido: in questo momento non è procedura adottatata da Regione Toscana, pertanto il valore è pari a zero",,,,,,,
2021-01-13T17:00:00,ITA,09,Toscana,43.76923077,11.25588885,738,140,878,7948,8826,103,507,113398,3916,,,126140,1988970,1099685,,6,"Positivi diagnosticati solo con test antigenico rapido: in questo momento non è procedura adottatata da Regione Toscana, pertanto il valore è pari a zero",,,,,,,
2021-01-14T17:00:00,ITA,09,Toscana,43.76923077,11.25588885,723,132,855,7830,8685,-141,424,113949,3930,,,126564,1998217,1103382,,2,"Positivi diagnosticati solo con test antigenico rapido: in questo momento non è procedura adottatata da Regione Toscana, pertanto il valore è pari a zero",,,,,,,
2021-01-15T17:00:00,ITA,09,Toscana,43.76923077,11.25588885,715,129,844,7754,8598,-87,446,114472,3940,,,127010,2012434,1106215,,7,,,127010,0,2007270,5164,ITI,ITI1
2021-01-16T17:00:00,ITA,09,Toscana,43.76923077,11.25588885,706,125,831,7808,8639,41,436,114850,3957,,,127446,2026960,1111228,,8,,,127443,3,2016624,10336,ITI,ITI1
2021-01-17T17:00:00,ITA,09,Toscana,43.76923077,11.25588885,698,118,816,7388,8204,-435,406,115676,3972,,,127852,2039503,1116053,,4,,,127849,3,2026003,13500,ITI,ITI1
2021-01-18T17:00:00,ITA,09,Toscana,43.76923077,11.25588885,720,125,845,7488,8333,129,345,115870,3994,,,128197,2046397,1118704,,9,,,128185,12,2031060,15337,ITI,ITI1
2021-01-19T17:00:00,ITA,09,Toscana,43.76923077,11.25588885,715,121,836,7419,8255,-78,241,116163,4020,,,128438,2059639,1122905,,11,,,128419,19,2038683,20956,ITI,ITI1
2021-01-20T17:00:00,ITA,09,Toscana,43.76923077,11.25588885,696,113,809,7473,8282,27,443,116561,4038,,,128881,2079166,1128285,,2,,,128858,23,2048863,30303,ITI,ITI1
2021-01-21T17:00:00,ITA,09,Toscana,43.76923077,11.25588885,659,116,775,7528,8303,21,503,117029,4052,,,129384,2093934,1133867,,11,,,129359,25,2058978,34956,ITI,ITI1
2021-01-22T17:00:00,ITA,09,Toscana,43.76923077,11.25588885,642,110,752,7450,8202,-101,429,117543,4068,,,129813,2108893,1139530,,6,,,129781,32,2068043,40850,ITI,ITI1
2021-01-23T17:00:00,ITA,09,Toscana,43.76923077,11.25588885,629,107,736,7525,8261,59,520,117983,4089,,,130333,2123933,1145629,,8,,,130295,38,2078051,45882,ITI,ITI1
2021-01-24T17:00:00,ITA,09,Toscana,43.76923077,11.25588885,636,106,742,7675,8417,156,526,118347,4095,,,130859,2136472,1151428,,5,,,130819,40,2087457,49015,ITI,ITI1
2021-01-25T17:00:00,ITA,09,Toscana,43.76923077,11.25588885,661,109,770,7690,8460,43,422,118712,4109,,,131281,2143394,1154572,,6,,,131235,46,2093370,50024,ITI,ITI1
2021-01-26T17:00:00,ITA,09,Toscana,43.76923077,11.25588885,682,103,785,7641,8426,-34,346,119083,4118,,,131627,2157178,1159951,,2,,,131572,55,2101119,56059,ITI,ITI1
2021-01-27T17:00:00,ITA,09,Toscana,43.76923077,11.25588885,676,103,779,7626,8405,-21,502,119594,4130,,,132129,2174158,1166853,,6,,,132067,62,2111517,62641,ITI,ITI1
2021-01-28T17:00:00,ITA,09,Toscana,43.76923077,11.25588885,672,100,772,7902,8674,269,620,119929,4146,,,132749,2190275,1173906,,4,,,132672,77,2121159,69116,ITI,ITI1
2021-01-29T17:00:00,ITA,09,Toscana,43.76923077,11.25588885,659,100,759,8243,9002,328,594,120169,4172,,,133343,2207275,1181251,,6,,,133264,79,2131187,76088,ITI,ITI1
2021-01-30T17:00:00,ITA,09,Toscana,43.76923077,11.25588885,648,95,743,8340,9083,81,603,120669,4194,,,133946,2223132,1188245,,1,,,133853,93,2141135,81997,ITI,ITI1
2021-01-31T17:00:00,ITA,09,Toscana,43.76923077,11.25588885,648,96,744,8431,9175,92,510,121079,4202,,,134456,2237018,1195439,,8,,,134360,96,2151364,85654,ITI,ITI1
2021-02-01T17:00:00,ITA,09,Toscana,43.76923077,11.25588885,656,101,757,8525,9282,107,373,121330,4217,,,134829,2244425,1199293,,6,,,134730,99,2156970,87455,ITI,ITI1
2021-02-02T17:00:00,ITA,09,Toscana,43.76923077,11.25588885,669,109,778,8424,9202,-80,399,121800,4226,,,135228,2259345,1205264,,18,,,135126,102,2164743,94602,ITI,ITI1
2021-02-03T17:00:00,ITA,09,Toscana,43.76923077,11.25588885,663,109,772,8573,9345,143,551,122187,4247,,,135779,2276931,1213838,,4,,,135658,121,2175251,101680,ITI,ITI1
2021-02-04T17:00:00,ITA,09,Toscana,43.76923077,11.25588885,642,112,754,8936,9690,345,760,122580,4269,,,136539,2293582,1221727,,9,,,136398,141,2185761,107821,ITI,ITI1
2021-02-05T17:00:00,ITA,09,Toscana,43.76923077,11.25588885,643,105,748,9344,10092,402,703,122865,4285,,,137242,2310528,1229279,,6,,,137094,148,2195881,114647,ITI,ITI1
2021-02-06T17:00:00,ITA,09,Toscana,43.76923077,11.25588885,643,109,752,9513,10265,173,708,123389,4296,,,137950,2327331,1237112,,10,,,137785,165,2206468,120863,ITI,ITI1
2021-02-07T17:00:00,ITA,09,Toscana,43.76923077,11.25588885,650,108,758,9682,10440,175,668,123860,4318,,,138618,2339959,1243732,,7,,,138443,175,2216022,123937,ITI,ITI1
2021-02-08T17:00:00,ITA,09,Toscana,43.76923077,11.25588885,691,112,803,9916,10719,279,523,124089,4333,,,139141,2347868,1248041,,10,,,138960,181,2221804,126064,ITI,ITI1
2021-02-09T17:00:00,ITA,09,Toscana,43.76923077,11.25588885,701,113,814,9927,10741,22,453,124493,4360,,,139594,2363704,1255241,,9,,,139404,190,2230318,133386,ITI,ITI1
2021-02-10T17:00:00,ITA,09,Toscana,43.76923077,11.25588885,700,115,815,10108,10923,182,671,124966,4376,,,140265,2383750,1264715,,10,,,140052,213,2243361,140389,ITI,ITI1
2021-02-11T17:00:00,ITA,09,Toscana,43.76923077,11.25588885,688,120,808,10553,11361,438,894,125415,4383,,,141159,2403172,1274655,,11,,,140909,250,2255667,147505,ITI,ITI1
2021-02-12T17:00:00,ITA,09,Toscana,43.76923077,11.25588885,685,126,811,10738,11549,188,727,125937,4400,,,141886,2422330,1284213,,12,,,141619,267,2267211,155119,ITI,ITI1
2021-02-13T17:00:00,ITA,09,Toscana,43.76923077,11.25588885,685,129,814,11085,11899,350,764,126337,4414,,,142650,2441931,1294292,,15,,,142365,285,2279412,162519,ITI,ITI1
2021-02-14T17:00:00,ITA,09,Toscana,43.76923077,11.25588885,693,130,823,11342,12165,266,725,126779,4431,,,143375,2458071,1303704,,6,,,143070,305,2291264,166807,ITI,ITI1
2021-02-15T17:00:00,ITA,09,Toscana,43.76923077,11.25588885,713,132,845,11491,12336,171,428,127018,4449,,,143803,2465755,1308159,,6,,,143496,307,2296489,169266,ITI,ITI1
2021-02-16T17:00:00,ITA,09,Toscana,43.76923077,11.25588885,718,133,851,11460,12311,-25,444,127472,4464,,,144247,2483037,1315677,,11,,,143921,326,2305180,177857,ITI,ITI1
2021-02-17T17:00:00,ITA,09,Toscana,43.76923077,11.25588885,699,137,836,11560,12396,85,773,128138,4486,,,145020,2503762,1325740,,13,,,144671,349,2318256,185506,ITI,ITI1
2021-02-18T17:00:00,ITA,09,Toscana,43.76923077,11.25588885,717,144,861,11942,12803,407,956,128676,4497,,,145976,2524789,1337126,,20,,,145589,387,2331158,193631,ITI,ITI1
2021-02-19T17:00:00,ITA,09,Toscana,43.76923077,11.25588885,723,149,872,12338,13210,407,924,129174,4516,,,146900,2547014,1348205,,14,,,146482,418,2344695,202319,ITI,ITI1
2021-02-20T17:00:00,ITA,09,Toscana,43.76923077,11.25588885,746,147,893,12844,13737,527,953,129585,4531,,,147853,2568586,1359653,,4,,,147411,442,2358166,210420,ITI,ITI1
2021-02-21T17:00:00,ITA,09,Toscana,43.76923077,11.25588885,744,147,891,13324,14215,478,968,130060,4546,,,148821,2588263,1370971,,9,,,148354,467,2372529,215734,ITI,ITI1
2021-02-22T17:00:00,ITA,09,Toscana,43.76923077,11.25588885,797,155,952,13835,14787,572,911,130383,4562,,,149732,2599096,1377334,,11,,,149235,497,2381623,217473,ITI,ITI1
2021-02-23T17:00:00,ITA,09,Toscana,43.76923077,11.25588885,824,159,983,14138,15121,334,824,130853,4582,,,150556,2618821,1386367,,16,,,150029,527,2393012,225809,ITI,ITI1
2021-02-24T17:00:00,ITA,09,Toscana,43.76923077,11.25588885,842,163,1005,14400,15405,284,857,131409,4599,,,151413,2640019,1396362,,13,,,150861,552,2406204,233815,ITI,ITI1
2021-02-25T17:00:00,ITA,09,Toscana,43.76923077,11.25588885,853,159,1012,15118,16130,725,1374,132044,4613,,,152787,2662754,1408946,,12,,,152199,588,2420676,242078,ITI,ITI1
2021-02-26T17:00:00,ITA,09,Toscana,43.76923077,11.25588885,844,163,1007,15876,16883,753,1254,132523,4635,,,154041,2685782,1420746,,14,,,153418,623,2434806,250976,ITI,ITI1
2021-02-27T17:00:00,ITA,09,Toscana,43.76923077,11.25588885,887,166,1053,16376,17429,546,1126,133083,4655,,,155167,2709142,1433158,,14,,,154515,652,2449368,259774,ITI,ITI1
2021-02-28T17:00:00,ITA,09,Toscana,43.76923077,11.25588885,909,168,1077,16972,18049,620,1068,133518,4668,,,156235,2728258,1444307,,7,,,155552,683,2463402,264856,ITI,ITI1
2021-03-01T17:00:00,ITA,09,Toscana,43.76923077,11.25588885,950,172,1122,17343,18465,416,877,133961,4686,,,157112,2740531,1451505,,12,,,156412,700,2473448,267083,ITI,ITI1
2021-03-02T17:00:00,ITA,09,Toscana,43.76923077,11.25588885,989,174,1163,17665,18828,363,1058,134643,4699,,,158170,2763855,1463071,,10,,,157448,722,2486630,277225,ITI,ITI1
2021-03-03T17:00:00,ITA,09,Toscana,43.76923077,11.25588885,1021,171,1192,18067,19259,431,1163,135347,4727,,,159333,2788768,1476328,,14,,,158570,763,2503162,285606,ITI,ITI1
2021-03-04T17:00:00,ITA,09,Toscana,43.76923077,11.25588885,1029,173,1202,18501,19703,444,1239,136119,4750,,,160572,2812512,1489353,,12,,,159775,797,2518302,294210,ITI,ITI1
2021-03-05T17:00:00,ITA,09,Toscana,43.76923077,11.25588885,1053,183,1236,18916,20152,449,1231,136890,4761,,,161803,2837853,1502164,,17,,,160975,828,2533467,304386,ITI,ITI1
2021-03-06T17:00:00,ITA,09,Toscana,43.76923077,11.25588885,1081,189,1270,19428,20698,546,1293,137614,4784,,,163096,2863126,1515066,,16,,,162228,868,2549193,313933,ITI,ITI1
2021-03-07T17:00:00,ITA,09,Toscana,43.76923077,11.25588885,1109,199,1308,20105,21413,715,1355,138244,4794,,,164451,2886131,1528501,,17,,,163548,903,2565931,320200,ITI,ITI1
2021-03-08T17:00:00,ITA,09,Toscana,43.76923077,11.25588885,1174,202,1376,20547,21923,510,1000,138712,4816,,,165451,2899140,1536184,,12,,,164537,914,2577029,322111,ITI,ITI1
2021-03-09T17:00:00,ITA,09,Toscana,43.76923077,11.25588885,1215,209,1424,20733,22157,234,1001,139458,4837,,,166452,2922864,1547684,,17,,,165500,952,2590352,332512,ITI,ITI1
2021-03-10T17:00:00,ITA,09,Toscana,43.76923077,11.25588885,1248,208,1456,21041,22497,340,1293,140391,4857,,,167745,2948810,1560327,,9,,,166758,987,2607212,341598,ITI,ITI1
2021-03-11T17:00:00,ITA,09,Toscana,43.76923077,11.25588885,1280,208,1488,21409,22897,400,1302,141273,4877,,,169047,2974400,1573504,,14,,,168010,1037,2623187,351213,ITI,ITI1
2021-03-12T17:00:00,ITA,09,Toscana,43.76923077,11.25588885,1292,218,1510,21684,23194,297,1304,142255,4902,,,170351,2999126,1585470,,21,,,169287,1064,2638802,360324,ITI,ITI1
2021-03-13T17:00:00,ITA,09,Toscana,43.76923077,11.25588885,1332,217,1549,22180,23729,535,1326,143026,4922,,,171677,3022670,1597260,,16,,,170574,1103,2652952,369718,ITI,ITI1
2021-03-14T17:00:00,ITA,09,Toscana,43.76923077,11.25588885,1363,236,1599,22666,24265,536,1305,143776,4941,,,172982,3043910,1608201,,23,,,171864,1118,2668531,375379,ITI,ITI1
2021-03-15T17:00:00,ITA,09,Toscana,43.76923077,11.25588885,1402,241,1643,22923,24566,301,1106,144570,4952,,,174088,3056620,1614523,,15,,,172949,1139,2679454,377166,ITI,ITI1
2021-03-16T17:00:00,ITA,09,Toscana,43.76923077,11.25588885,1430,239,1669,23226,24895,329,1247,145470,4970,,,175335,3080090,1623906,,15,,,174165,1170,2692646,387444,ITI,ITI1
2021-03-17T17:00:00,ITA,09,Toscana,43.76923077,11.25588885,1453,241,1694,23213,24907,12,1275,146712,4991,,,176610,3105028,1634285,,21,,,175386,1224,2709044,395984,ITI,ITI1
2021-03-18T17:00:00,ITA,09,Toscana,43.76923077,11.25588885,1454,246,1700,23638,25338,431,1513,147769,5016,,,178123,3129792,1645747,,16,,,176773,1350,2724346,405446,ITI,ITI1
2021-03-19T17:00:00,ITA,09,Toscana,43.76923077,11.25588885,1448,246,1694,23945,25639,301,1365,148808,5041,,,179488,3153257,1656862,,16,,,178094,1394,2739233,414024,ITI,ITI1
2021-03-20T17:00:00,ITA,09,Toscana,43.76923077,11.25588885,1424,240,1664,24387,26051,412,1510,149888,5059,,,180998,3178301,1667979,,9,,,179526,1472,2754816,423485,ITI,ITI1
2021-03-21T17:00:00,ITA,09,Toscana,43.76923077,11.25588885,1408,245,1653,24695,26348,297,1358,150913,5095,,,182356,3199230,1677908,,15,,,180831,1525,2770172,429058,ITI,ITI1
2021-03-22T17:00:00,ITA,09,Toscana,43.76923077,11.25588885,1461,245,1706,25073,26779,431,1140,151599,5118,,,183496,3212689,1684490,,15,,,181932,1564,2781894,430795,ITI,ITI1
2021-03-23T17:00:00,ITA,09,Toscana,43.76923077,11.25588885,1486,243,1729,24909,26638,-141,1062,152771,5149,,,184558,3235366,1693329,,14,,,182949,1609,2794145,441221,ITI,ITI1
2021-03-24T17:00:00,ITA,09,Toscana,43.76923077,11.25588885,1488,253,1741,24770,26511,-127,1197,154068,5176,,,185755,3261425,1703780,,24,,,184111,1644,2810514,450911,ITI,ITI1
2021-03-25T17:00:00,ITA,09,Toscana,43.76923077,11.25588885,1470,257,1727,25137,26864,353,1620,155313,5198,,,187375,3286164,1715126,,17,,"Facendo seguito alle intese intercorse,  si fa presente che  in data 26/03/2021 sono stati aggiunti 102 casi positivi relativi al giorno 25/03/2021. ",185665,1710,2826615,459549,ITI,ITI1
2021-03-26T17:00:00,ITA,09,Toscana,43.76923077,11.25588885,1473,257,1730,25496,27226,362,1425,156354,5220,,,188800,3312214,1725391,,14,,,187035,1765,2841708,470506,ITI,ITI1
2021-03-27T17:00:00,ITA,09,Toscana,43.76923077,11.25588885,1496,264,1760,25543,27303,77,1467,157725,5239,,,190267,3339047,1736259,,23,,,188468,1799,2857376,481671,ITI,ITI1
2021-03-28T17:00:00,ITA,09,Toscana,43.76923077,11.25588885,1505,264,1769,25792,27561,258,1368,158808,5266,,,191635,3361490,1745957,,18,,,189779,1856,2872604,488886,ITI,ITI1
2021-03-29T17:00:00,ITA,09,Toscana,43.76923077,11.25588885,1532,262,1794,26096,27890,329,1021,159469,5297,,,192656,3373577,1751478,,7,,,190770,1886,2882927,490650,ITI,ITI1
2021-03-30T17:00:00,ITA,09,Toscana,43.76923077,11.25588885,1542,265,1807,26083,27890,0,1180,160617,5329,,,193836,3398670,1760000,,23,,,191926,1910,2896149,502521,ITI,ITI1
2021-03-31T17:00:00,ITA,09,Toscana,43.76923077,11.25588885,1560,265,1825,26282,28107,217,1538,161919,5348,,,195374,3427730,1770281,,18,,,193401,1973,2913359,514371,ITI,ITI1
2021-04-01T17:00:00,ITA,09,Toscana,43.76923077,11.25588885,1584,265,1849,26579,28428,321,1631,163197,5380,,,197005,3456566,1781360,,19,,,194980,2025,2930468,526098,ITI,ITI1
2021-04-02T17:00:00,ITA,09,Toscana,43.76923077,11.25588885,1587,274,1861,26815,28676,248,1640,164563,5406,,,198645,3487033,1792652,,28,,,196570,2075,2948602,538431,ITI,ITI1
2021-04-03T17:00:00,ITA,09,Toscana,43.76923077,11.25588885,1603,278,1881,26828,28709,33,1473,165981,5428,,,200118,3517381,1802952,,21,,,198004,2114,2965617,551764,ITI,ITI1
2021-04-04T17:00:00,ITA,09,Toscana,43.76923077,11.25588885,1614,274,1888,27340,29228,519,1626,167062,5454,,,201744,3541771,1811673,,13,,,199579,2165,2982006,559765,ITI,ITI1
2021-04-05T17:00:00,ITA,09,Toscana,43.76923077,11.25588885,1666,282,1948,27276,29224,-4,981,168023,5478,,,202725,3552288,1816143,,18,,,200529,2196,2991118,561170,ITI,ITI1
2021-04-06T17:00:00,ITA,09,Toscana,43.76923077,11.25588885,1712,279,1991,27088,29079,-145,685,168821,5510,,,203410,3561041,1819321,,15,,,201186,2224,2997923,563118,ITI,ITI1
2021-04-07T17:00:00,ITA,09,Toscana,43.76923077,11.25588885,1724,275,1999,26353,28352,-727,937,170444,5551,,,204347,3588310,1826980,,14,,,202104,2243,3009894,578416,ITI,ITI1
2021-04-08T17:00:00,ITA,09,Toscana,43.76923077,11.25588885,1707,285,1992,26211,28203,-149,1153,171726,5571,,,205500,3616539,1836475,,20,,,203233,2267,3026407,590132,ITI,ITI1
2021-04-09T17:00:00,ITA,09,Toscana,43.76923077,11.25588885,1704,284,1988,26172,28160,-43,1309,173045,5604,,,206809,3642633,1845570,,18,,,204510,2299,3041438,601195,ITI,ITI1
2021-04-10T17:00:00,ITA,09,Toscana,43.76923077,11.25588885,1688,286,1974,25938,27912,-248,1177,174442,5632,,,207986,3668323,1854538,,18,,,205645,2341,3056566,611757,ITI,ITI1
2021-04-11T17:00:00,ITA,09,Toscana,43.76923077,11.25588885,1668,284,1952,25806,27758,-154,1222,175788,5662,,,209208,3690837,1862640,,11,,,206837,2371,3072859,617978,ITI,ITI1
2021-04-12T17:00:00,ITA,09,Toscana,43.76923077,11.25588885,1698,286,1984,25647,27631,-127,715,176600,5692,,,209923,3701591,1866642,,12,,,207507,2416,3081750,619841,ITI,ITI1
2021-04-13T17:00:00,ITA,09,Toscana,43.76923077,11.25588885,1664,283,1947,25467,27414,-217,934,177717,5726,,,210857,3725470,1874315,,13,,,208421,2436,3094299,631171,ITI,ITI1
2021-04-14T17:00:00,ITA,09,Toscana,43.76923077,11.25588885,1664,282,1946,25131,27077,-337,1168,179190,5758,,,212025,3751125,1882641,,17,,,209554,2471,3110136,640989,ITI,ITI1
2021-04-15T17:00:00,ITA,09,Toscana,43.76923077,11.25588885,1633,286,1919,24867,26786,-291,1206,180661,5784,,,213231,3776227,1891751,,21,,,210734,2497,3125205,651022,ITI,ITI1
2021-04-16T17:00:00,ITA,09,Toscana,43.76923077,11.25588885,1557,278,1835,24721,26556,-230,1239,182110,5804,,,214470,3800976,1900629,,14,,,211934,2536,3139057,661919,ITI,ITI1
2021-04-17T17:00:00,ITA,09,Toscana,43.76923077,11.25588885,1537,278,1815,24555,26370,-186,1150,183426,5824,,,215620,3827841,1909441,,13,,,213061,2559,3154669,673172,ITI,ITI1
2021-04-18T17:00:00,ITA,09,Toscana,43.76923077,11.25588885,1531,270,1801,24270,26071,-299,958,184655,5852,,,216578,3848248,1916048,,12,,,214003,2575,3169031,679217,ITI,ITI1
2021-04-19T17:00:00,ITA,09,Toscana,43.76923077,11.25588885,1577,273,1850,23863,25713,-358,771,185753,5883,,,217349,3859447,1920175,,11,,,214748,2601,3178641,680806,ITI,ITI1
2021-04-20T17:00:00,ITA,09,Toscana,43.76923077,11.25588885,1553,269,1822,23249,25071,-642,644,187011,5911,,,217993,3882478,1927119,,15,,,215368,2625,3189910,692568,ITI,ITI1
2021-04-21T17:00:00,ITA,09,Toscana,43.76923077,11.25588885,1551,257,1808,22665,24473,-598,936,188514,5942,,,218929,3907653,1935288,,10,,,216253,2676,3204506,703147,ITI,ITI1
2021-04-22T17:00:00,ITA,09,Toscana,43.76923077,11.25588885,1524,257,1781,22208,23989,-484,1041,190006,5975,,,219970,3932092,1944069,,12,,,217268,2702,3218402,713690,ITI,ITI1
2021-04-23T17:00:00,ITA,09,Toscana,43.76923077,11.25588885,1501,256,1757,21750,23507,-482,1003,191474,5992,,,220973,3958141,1953370,,12,,,218251,2722,3232282,725859,ITI,ITI1
2021-04-24T17:00:00,ITA,09,Toscana,43.76923077,11.25588885,1474,255,1729,21318,23047,-460,886,192794,6018,,,221859,3984221,1962041,,11,,,219105,2754,3246134,738087,ITI,ITI1
2021-04-25T17:00:00,ITA,09,Toscana,43.76923077,11.25588885,1453,252,1705,21141,22846,-201,955,193928,6040,,,222814,4006191,1970020,,10,,,220027,2787,3260676,745515,ITI,ITI1
2021-04-26T17:00:00,ITA,09,Toscana,43.76923077,11.25588885,1466,262,1728,20943,22671,-175,737,194818,6062,,,223551,4017800,1974280,,20,,,220738,2813,3270570,747230,ITI,ITI1
2021-04-27T17:00:00,ITA,09,Toscana,43.76923077,11.25588885,1449,257,1706,20060,21766,-905,522,196211,6096,,,224073,4038993,1980676,,21,,,221246,2827,3280399,758594,ITI,ITI1
2021-04-28T17:00:00,ITA,09,Toscana,43.76923077,11.25588885,1414,256,1670,19597,21267,-499,847,197525,6128,,,224920,4065475,1989366,,14,,,222054,2866,3295815,769660,ITI,ITI1
2021-04-29T17:00:00,ITA,09,Toscana,43.76923077,11.25588885,1362,254,1616,19511,21127,-140,1052,198690,6155,,,225972,4092664,1999972,,9,,,223080,2892,3310009,782655,ITI,ITI1
2021-04-30T17:00:00,ITA,09,Toscana,43.76923077,11.25588885,1332,253,1585,19084,20669,-458,870,199989,6184,,,226842,4120489,2009414,,13,,,223924,2918,3323633,796856,ITI,ITI1
2021-05-01T17:00:00,ITA,09,Toscana,43.76923077,11.25588885,1279,248,1527,18872,20399,-270,895,201136,6202,,,227737,4152203,2019607,,14,,,224789,2948,3339412,812791,ITI,ITI1
2021-05-02T17:00:00,ITA,09,Toscana,43.76923077,11.25588885,1296,250,1546,18744,20290,-109,730,201958,6219,,,228467,4167136,2025328,,8,,,225495,2972,3351045,816091,ITI,ITI1
2021-05-03T17:00:00,ITA,09,Toscana,43.76923077,11.25588885,1306,249,1555,18435,19990,-300,570,202799,6248,,,229037,4176686,2028970,,9,,,226044,2993,3358534,818152,ITI,ITI1
2021-05-04T17:00:00,ITA,09,Toscana,43.76923077,11.25588885,1266,237,1503,18033,19536,-454,503,203731,6273,,,229540,4199079,2036172,,9,,,226524,3016,3368491,830588,ITI,ITI1
2021-05-05T17:00:00,ITA,09,Toscana,43.76923077,11.25588885,1218,229,1447,17489,18936,-600,744,205040,6308,,,230284,4225879,2044515,,17,,,227254,3030,3384070,841809,ITI,ITI1
2021-05-06T17:00:00,ITA,09,Toscana,43.76923077,11.25588885,1190,225,1415,17253,18668,-268,861,206136,6341,,,231145,4252015,2053838,,16,,,228088,3057,3398979,853036,ITI,ITI1
2021-05-07T17:00:00,ITA,09,Toscana,43.76923077,11.25588885,1146,220,1366,16781,18147,-521,715,207361,6352,,,231860,4279078,2063400,,7,,,228769,3091,3411695,867383,ITI,ITI1
2021-05-08T17:00:00,ITA,09,Toscana,43.76923077,11.25588885,1108,214,1322,16521,17843,-304,676,208320,6373,,,232536,4306302,2072636,,12,,,229421,3115,3425524,880778,ITI,ITI1
2021-05-09T17:00:00,ITA,09,Toscana,43.76923077,11.25588885,1084,212,1296,16157,17453,-390,713,209414,6382,,,233249,4327283,2080026,,7,,,230117,3132,3439024,888259,ITI,ITI1
2021-05-10T17:00:00,ITA,09,Toscana,43.76923077,11.25588885,1106,205,1311,15837,17148,-305,481,210180,6402,,,233730,4337791,2084156,,6,,,230589,3141,3447714,890077,ITI,ITI1
